…
g2015gb
```

    ## # A tibble: 273 x 8
    ## # Groups:   country, STATUS, DISP_AREA [273]
    ##    country   STATUS DISP_AREA ADM0_CODE UN_status_detail UNmemberstate UN_status
    ##    <chr>     <chr>  <chr>         <int> <fct>                    <dbl>     <dbl>
    ##  1 Afghanis~ "Memb~ NO                1 Member State                 1         5
    ##  2 Aksai Ch~ "Sove~ YES               2 Sovereignty uns~             0         2
    ##  3 Albania   "Memb~ NO                3 Member State                 1         5
    ##  4 Algeria   "Memb~ NO                4 Member State                 1         5
    ##  5 American~ "US N~ NO                5 US Non-Self-Gov~             0         5
    ##  6 Andorra   "Memb~ NO                7 Member State                 1         5
    ##  7 Angola    "Memb~ NO                8 Member State                 1         5
    ##  8 Anguilla  "UK N~ NO                9 UK Non-Self-Gov~             0         4
    ##  9 Antarcti~ ""     NO               10 <NA>                        NA        NA
    ## 10 Antigua ~ "Memb~ NO               11 Member State                 1         5
    ## # i 263 more rows
    ## # i 1 more variable: territoryof <chr>
…
UNStatus
```

    ## # A tibble: 275 x 7
    ##    country  DISP_AREA UN_status_detail UNmemberstate UN_status territoryof ISO  
    ##    <chr>    <chr>     <chr>                    <dbl>     <dbl> <chr>       <chr>
    ##  1 Afghani~ NO        Member State                 1         5 Member Sta~ AFG  
    ##  2 Aksai C~ YES       Sovereignty uns~             0         2 <NA>        <NA> 
    ##  3 Albania  NO        Member State                 1         5 Member Sta~ ALB  
    ##  4 Algeria  NO        Member State                 1         5 Member Sta~ DZA  
    ##  5 America~ NO        US Non-Self-Gov~             0         5 US Non-Sel~ ASM  
    ##  6 Andorra  NO        Member State                 1         5 Member Sta~ AND  
    ##  7 Angola   NO        Member State                 1         5 Member Sta~ AGO  
    ##  8 Anguilla NO        UK Non-Self-Gov~             0         4 <NA>        AIA  
    ##  9 Antarct~ NO        <NA>                        NA        NA <NA>        ATA  
    ## 10 Antigua~ NO        Member State                 1         5 Member Sta~ ATG  
    ## # i 265 more rows
…
